\babel@toc {nil}{}
\contentsline {table}{\numberline {1}{\ignorespaces Dimensiones del diseño Selector.}}{11}{table.1}%
\contentsline {table}{\numberline {2}{\ignorespaces Consumo de potencia estática del Selector.}}{14}{table.2}%
\contentsline {table}{\numberline {3}{\ignorespaces Consumo de potencia dinámica del Selector.}}{15}{table.3}%
\contentsline {table}{\numberline {4}{\ignorespaces Dimensiones del diseño buffer triestado.}}{18}{table.4}%
\contentsline {table}{\numberline {5}{\ignorespaces Dimensiones del diseño Full Adder Full Custom.}}{24}{table.5}%
\contentsline {table}{\numberline {6}{\ignorespaces Consumo de potencia estática del Full Adder Full Custom.}}{28}{table.6}%
\contentsline {table}{\numberline {7}{\ignorespaces Consumo de potencia dinámica del Full Adder Full Custom.}}{29}{table.7}%
\contentsline {table}{\numberline {8}{\ignorespaces Dimensiones del diseño Full Adder Semi Custom.}}{33}{table.8}%
\contentsline {table}{\numberline {9}{\ignorespaces Consumo de potencia estática del Full Adder Semi Custom.}}{37}{table.9}%
\contentsline {table}{\numberline {10}{\ignorespaces Consumo de potencia dinámica del Full Adder Semi Custom.}}{38}{table.10}%
\contentsline {table}{\numberline {11}{\ignorespaces Dimensiones del diseño Selector.}}{42}{table.11}%
\contentsline {table}{\numberline {12}{\ignorespaces Consumo de potencia estática del Bitslice.}}{43}{table.12}%
\contentsline {table}{\numberline {13}{\ignorespaces Consumo de potencia dinámica del Bitslice.}}{44}{table.13}%
\contentsline {table}{\numberline {14}{\ignorespaces Dimensiones del diseño Comparador.}}{47}{table.14}%
\contentsline {table}{\numberline {15}{\ignorespaces Consumo de potencia estática del Comparador.}}{50}{table.15}%
\contentsline {table}{\numberline {16}{\ignorespaces Consumo de potencia dinámica del Comparador.}}{51}{table.16}%
\contentsline {table}{\numberline {17}{\ignorespaces Dimensiones del diseño.}}{58}{table.17}%
\contentsline {table}{\numberline {18}{\ignorespaces Región vacía del diseño.}}{58}{table.18}%
\contentsline {table}{\numberline {19}{\ignorespaces Consumo de potencia dinámica del sistema.}}{59}{table.19}%
